<svg width="18" height="18" viewBox="0 0 18 18" fill="none" xmlns="http://www.w3.org/2000/svg">
<path d="M13.6177 12.6615L12.7275 13.542C12.0712 14.1855 11.22 15.0135 10.173 16.026C9.8583 16.3302 9.4377 16.5003 8.99998 16.5003C8.56226 16.5003 8.14166 16.3302 7.82698 16.026L5.20873 13.479C4.87948 13.1557 4.60423 12.8835 4.38223 12.6615C3.469 11.7482 2.84711 10.5846 2.59517 9.31786C2.34324 8.05113 2.47259 6.73814 2.96686 5.54492C3.46113 4.3517 4.29813 3.33184 5.37202 2.61431C6.4459 1.89677 7.70844 1.51379 8.99998 1.51379C10.2915 1.51379 11.5541 1.89677 12.6279 2.61431C13.7018 3.33184 14.5388 4.3517 15.0331 5.54492C15.5274 6.73814 15.6567 8.05113 15.4048 9.31786C15.1529 10.5846 14.531 11.7482 13.6177 12.6615ZM10.875 8.24996C10.875 7.75268 10.6774 7.27577 10.3258 6.92414C9.97417 6.57251 9.49726 6.37496 8.99998 6.37496C8.5027 6.37496 8.02578 6.57251 7.67415 6.92414C7.32252 7.27577 7.12498 7.75268 7.12498 8.24996C7.12498 8.74724 7.32252 9.22416 7.67415 9.57579C8.02578 9.92742 8.5027 10.125 8.99998 10.125C9.49726 10.125 9.97417 9.92742 10.3258 9.57579C10.6774 9.22416 10.875 8.74724 10.875 8.24996Z" fill="white"/>
</svg>
