{
  "message" : 0,
  "cod" : "200",
  "cnt" : 15,
  "list" : [
    {
      "clouds" : {
        "all" : 75
      },
      "wind" : {
        "speed" : 2.1400000000000001,
        "deg" : 92,
        "gust" : 2.7999999999999998
      },
      "dt" : 1677240000,
      "dt_txt" : "2023-02-24 12:00:00",
      "main" : {
        "humidity" : 88,
        "feels_like" : -2.9300000000000002,
        "temp_min" : -0.26000000000000001,
        "temp_max" : 0.67000000000000004,
        "temp" : -0.26000000000000001,
        "pressure" : 996,
        "temp_kf" : -0.93000000000000005,
        "sea_level" : 996,
        "grnd_level" : 992
      },
      "weather" : [
        {
          "id" : 803,
          "main" : "Clouds",
          "icon" : "04d",
          "description" : "broken clouds"
        }
      ],
      "pop" : 0,
      "sys" : {
        "pod" : "d"
      },
      "visibility" : 10000
    },
    {
      "clouds" : {
        "all" : 83
      },
      "wind" : {
        "speed" : 2.48,
        "deg" : 54,
        "gust" : 4.5300000000000002
      },
      "dt" : 1677250800,
      "dt_txt" : "2023-02-24 15:00:00",
      "main" : {
        "humidity" : 86,
        "feels_like" : -3.1400000000000001,
        "temp_min" : -0.12,
        "temp_max" : 0.14999999999999999,
        "temp" : -0.12,
        "pressure" : 996,
        "temp_kf" : -0.27000000000000002,
        "sea_level" : 996,
        "grnd_level" : 992
      },
      "weather" : [
        {
          "id" : 803,
          "main" : "Clouds",
          "icon" : "04d",
          "description" : "broken clouds"
        }
      ],
      "pop" : 0,
      "sys" : {
        "pod" : "d"
      },
      "visibility" : 10000
    },
    {
      "clouds" : {
        "all" : 92
      },
      "wind" : {
        "speed" : 3.1800000000000002,
        "deg" : 41,
        "gust" : 6.5700000000000003
      },
      "dt" : 1677261600,
      "dt_txt" : "2023-02-24 18:00:00",
      "main" : {
        "humidity" : 87,
        "feels_like" : -4.6500000000000004,
        "temp_min" : -1.1000000000000001,
        "temp_max" : -0.81999999999999995,
        "temp" : -0.81999999999999995,
        "pressure" : 995,
        "temp_kf" : 0.28000000000000003,
        "sea_level" : 995,
        "grnd_level" : 992
      },
      "weather" : [
        {
          "id" : 804,
          "main" : "Clouds",
          "icon" : "04n",
          "description" : "overcast clouds"
        }
      ],
      "pop" : 0,
      "sys" : {
        "pod" : "n"
      },
      "visibility" : 10000
    },
    {
      "clouds" : {
        "all" : 100
      },
      "wind" : {
        "speed" : 3.6800000000000002,
        "deg" : 16,
        "gust" : 8.8300000000000001
      },
      "dt" : 1677272400,
      "dt_txt" : "2023-02-24 21:00:00",
      "main" : {
        "humidity" : 83,
        "feels_like" : -5.9299999999999997,
        "temp_min" : -1.54,
        "temp_max" : -1.54,
        "temp" : -1.54,
        "pressure" : 995,
        "temp_kf" : 0,
        "sea_level" : 995,
        "grnd_level" : 993
      },
      "weather" : [
        {
          "id" : 804,
          "main" : "Clouds",
          "icon" : "04n",
          "description" : "overcast clouds"
        }
      ],
      "pop" : 0.01,
      "sys" : {
        "pod" : "n"
      },
      "visibility" : 10000
    },
    {
      "clouds" : {
        "all" : 100
      },
      "wind" : {
        "speed" : 3.9700000000000002,
        "deg" : 8,
        "gust" : 9.3800000000000008
      },
      "dt" : 1677283200,
      "dt_txt" : "2023-02-25 00:00:00",
      "main" : {
        "humidity" : 89,
        "feels_like" : -5.8600000000000003,
        "temp_min" : -1.3,
        "temp_max" : -1.3,
        "temp" : -1.3,
        "pressure" : 996,
        "temp_kf" : 0,
        "sea_level" : 996,
        "grnd_level" : 993
      },
      "weather" : [
        {
          "id" : 804,
          "main" : "Clouds",
          "icon" : "04n",
          "description" : "overcast clouds"
        }
      ],
      "pop" : 0.059999999999999998,
      "sys" : {
        "pod" : "n"
      },
      "visibility" : 10000
    },
    {
      "clouds" : {
        "all" : 100
      },
      "wind" : {
        "speed" : 6.21,
        "deg" : 4,
        "gust" : 11.01
      },
      "dt" : 1677294000,
      "snow" : {
        "3h" : 0.44
      },
      "dt_txt" : "2023-02-25 03:00:00",
      "main" : {
        "humidity" : 79,
        "feels_like" : -6.9299999999999997,
        "temp_min" : -1.0800000000000001,
        "temp_max" : -1.0800000000000001,
        "temp" : -1.0800000000000001,
        "pressure" : 996,
        "temp_kf" : 0,
        "sea_level" : 996,
        "grnd_level" : 993
      },
      "weather" : [
        {
          "id" : 600,
          "main" : "Snow",
          "icon" : "13n",
          "description" : "light snow"
        }
      ],
      "pop" : 0.46999999999999997,
      "sys" : {
        "pod" : "n"
      },
      "visibility" : 10000
    },
    {
      "clouds" : {
        "all" : 100
      },
      "wind" : {
        "speed" : 6.4000000000000004,
        "deg" : 5,
        "gust" : 12.24
      },
      "dt" : 1677304800,
      "dt_txt" : "2023-02-25 06:00:00",
      "main" : {
        "humidity" : 83,
        "feels_like" : -7.4400000000000004,
        "temp_min" : -1.4099999999999999,
        "temp_max" : -1.4099999999999999,
        "temp" : -1.4099999999999999,
        "pressure" : 998,
        "temp_kf" : 0,
        "sea_level" : 998,
        "grnd_level" : 995
      },
      "weather" : [
        {
          "id" : 804,
          "main" : "Clouds",
          "icon" : "04d",
          "description" : "overcast clouds"
        }
      ],
      "pop" : 0.28000000000000003,
      "sys" : {
        "pod" : "d"
      },
      "visibility" : 10000
    },
    {
      "clouds" : {
        "all" : 100
      },
      "wind" : {
        "speed" : 6.7300000000000004,
        "deg" : 8,
        "gust" : 12.960000000000001
      },
      "dt" : 1677315600,
      "snow" : {
        "3h" : 0.53000000000000003
      },
      "dt_txt" : "2023-02-25 09:00:00",
      "main" : {
        "humidity" : 87,
        "feels_like" : -7.0499999999999998,
        "temp_min" : -0.97999999999999998,
        "temp_max" : -0.97999999999999998,
        "temp" : -0.97999999999999998,
        "pressure" : 1000,
        "temp_kf" : 0,
        "sea_level" : 1000,
        "grnd_level" : 998
      },
      "weather" : [
        {
          "id" : 600,
          "main" : "Snow",
          "icon" : "13d",
          "description" : "light snow"
        }
      ],
      "pop" : 0.48999999999999999,
      "sys" : {
        "pod" : "d"
      },
      "visibility" : 1403
    },
    {
      "clouds" : {
        "all" : 100
      },
      "wind" : {
        "speed" : 7.3399999999999999,
        "deg" : 9,
        "gust" : 13.15
      },
      "dt" : 1677326400,
      "snow" : {
        "3h" : 0.39000000000000001
      },
      "dt_txt" : "2023-02-25 12:00:00",
      "main" : {
        "humidity" : 82,
        "feels_like" : -6.8300000000000001,
        "temp_min" : -0.59999999999999998,
        "temp_max" : -0.59999999999999998,
        "temp" : -0.59999999999999998,
        "pressure" : 1002,
        "temp_kf" : 0,
        "sea_level" : 1002,
        "grnd_level" : 1000
      },
      "weather" : [
        {
          "id" : 600,
          "main" : "Snow",
          "icon" : "13d",
          "description" : "light snow"
        }
      ],
      "pop" : 0.60999999999999999,
      "sys" : {
        "pod" : "d"
      },
      "visibility" : 3712
    },
    {
      "clouds" : {
        "all" : 100
      },
      "wind" : {
        "speed" : 7.1299999999999999,
        "deg" : 6,
        "gust" : 14.15
      },
      "dt" : 1677337200,
      "snow" : {
        "3h" : 0.39000000000000001
      },
      "dt_txt" : "2023-02-25 15:00:00",
      "main" : {
        "humidity" : 89,
        "feels_like" : -7.7599999999999998,
        "temp_min" : -1.3899999999999999,
        "temp_max" : -1.3899999999999999,
        "temp" : -1.3899999999999999,
        "pressure" : 1005,
        "temp_kf" : 0,
        "sea_level" : 1005,
        "grnd_level" : 1002
      },
      "weather" : [
        {
          "id" : 600,
          "main" : "Snow",
          "icon" : "13d",
          "description" : "light snow"
        }
      ],
      "pop" : 0.45000000000000001,
      "sys" : {
        "pod" : "d"
      },
      "visibility" : 658
    },
    {
      "clouds" : {
        "all" : 99
      },
      "wind" : {
        "speed" : 7.5700000000000003,
        "deg" : 11,
        "gust" : 14.57
      },
      "dt" : 1677348000,
      "snow" : {
        "3h" : 0.28000000000000003
      },
      "dt_txt" : "2023-02-25 18:00:00",
      "main" : {
        "humidity" : 70,
        "feels_like" : -8.1500000000000004,
        "temp_min" : -1.54,
        "temp_max" : -1.54,
        "temp" : -1.54,
        "pressure" : 1008,
        "temp_kf" : 0,
        "sea_level" : 1008,
        "grnd_level" : 1006
      },
      "weather" : [
        {
          "id" : 600,
          "main" : "Snow",
          "icon" : "13n",
          "description" : "light snow"
        }
      ],
      "pop" : 0.40000000000000002,
      "sys" : {
        "pod" : "n"
      },
      "visibility" : 10000
    },
    {
      "clouds" : {
        "all" : 25
      },
      "wind" : {
        "speed" : 7.0999999999999996,
        "deg" : 7,
        "gust" : 13.6
      },
      "dt" : 1677358800,
      "dt_txt" : "2023-02-25 21:00:00",
      "main" : {
        "humidity" : 65,
        "feels_like" : -8.2200000000000006,
        "temp_min" : -1.76,
        "temp_max" : -1.76,
        "temp" : -1.76,
        "pressure" : 1011,
        "temp_kf" : 0,
        "sea_level" : 1011,
        "grnd_level" : 1009
      },
      "weather" : [
        {
          "id" : 802,
          "main" : "Clouds",
          "icon" : "03n",
          "description" : "scattered clouds"
        }
      ],
      "pop" : 0,
      "sys" : {
        "pod" : "n"
      },
      "visibility" : 10000
    },
    {
      "clouds" : {
        "all" : 16
      },
      "wind" : {
        "speed" : 5.8700000000000001,
        "deg" : 357,
        "gust" : 12.09
      },
      "dt" : 1677369600,
      "dt_txt" : "2023-02-26 00:00:00",
      "main" : {
        "humidity" : 73,
        "feels_like" : -8.0600000000000005,
        "temp_min" : -2.1099999999999999,
        "temp_max" : -2.1099999999999999,
        "temp" : -2.1099999999999999,
        "pressure" : 1014,
        "temp_kf" : 0,
        "sea_level" : 1014,
        "grnd_level" : 1011
      },
      "weather" : [
        {
          "id" : 801,
          "main" : "Clouds",
          "icon" : "02n",
          "description" : "few clouds"
        }
      ],
      "pop" : 0,
      "sys" : {
        "pod" : "n"
      },
      "visibility" : 10000
    },
    {
      "clouds" : {
        "all" : 31
      },
      "wind" : {
        "speed" : 5.0199999999999996,
        "deg" : 347,
        "gust" : 11.859999999999999
      },
      "dt" : 1677380400,
      "dt_txt" : "2023-02-26 03:00:00",
      "main" : {
        "humidity" : 77,
        "feels_like" : -8.2300000000000004,
        "temp_min" : -2.6400000000000001,
        "temp_max" : -2.6400000000000001,
        "temp" : -2.6400000000000001,
        "pressure" : 1015,
        "temp_kf" : 0,
        "sea_level" : 1015,
        "grnd_level" : 1012
      },
      "weather" : [
        {
          "id" : 802,
          "main" : "Clouds",
          "icon" : "03n",
          "description" : "scattered clouds"
        }
      ],
      "pop" : 0,
      "sys" : {
        "pod" : "n"
      },
      "visibility" : 10000
    },
    {
      "clouds" : {
        "all" : 35
      },
      "wind" : {
        "speed" : 5,
        "deg" : 347,
        "gust" : 12.1
      },
      "dt" : 1677391200,
      "dt_txt" : "2023-02-26 06:00:00",
      "main" : {
        "humidity" : 81,
        "feels_like" : -8.2200000000000006,
        "temp_min" : -2.6400000000000001,
        "temp_max" : -2.6400000000000001,
        "temp" : -2.6400000000000001,
        "pressure" : 1017,
        "temp_kf" : 0,
        "sea_level" : 1017,
        "grnd_level" : 1014
      },
      "weather" : [
        {
          "id" : 802,
          "main" : "Clouds",
          "icon" : "03d",
          "description" : "scattered clouds"
        }
      ],
      "pop" : 0,
      "sys" : {
        "pod" : "d"
      },
      "visibility" : 10000
    }
  ],
  "city" : {
    "sunset" : 1677254509,
    "country" : "SE",
    "id" : 2673730,
    "coord" : {
      "lat" : 59.329300000000003,
      "lon" : 18.0686
    },
    "population" : 1000000,
    "timezone" : 3600,
    "sunrise" : 1677218433,
    "name" : "Stockholm"
  }
}
